1.1
0.125
0.125
1
0
0
1
parameterFiles/p-Terphenyl_emission.csv
4
parameterFiles/TPBD_extinktion_1000ppm.csv
parameterFiles/TPBD_emission.csv
8
0.0
1.2
1.2
0.8
0.126
2.8
1.0
sqrt( 1. + 1.44355*x*x / (x*x - 20216.) )
sqrt( 1. + 1.18188*x*x / (x*x - 11309.) )
sqrt( 1. + 0.98323*x*x / (x*x - 9541.) )
7.9e-10*exp(6.715*1239.842/x) + 3.143e-5*TMath::Voigt(1.0/x-1.403e-3,0.816e-5,1.389e-5) + 0.466e-5*TMath::Voigt(1.0/x-1.644e-3,0.975e-5,1.389e-5) +  0.191*0.466e-5*TMath::Voigt(1.0/x-1.872e-3,0.975e-5,1.389e-5) +  1.628e-5*TMath::Voigt(1.0/x-1.321e-3,1.473e-5,1.389e-5) +  0.102e-5*TMath::Voigt(1.0/x-1.548e-3,0.986e-5,1.389e-5) +  0.191*0.102e-5*TMath::Voigt(1.0/x-1.762e-3,0.986e-5,1.389e-5) + 4.65e-2
119./100.*104./105.*8./3.* ( 1.628e-5*TMath::Voigt(1.0/x-1.321e-3,1.473e-5,1.389e-5) +  0.102e-5*TMath::Voigt(1.0/x-1.548e-3,0.986e-5,1.389e-5) +  0.191*0.102e-5*TMath::Voigt(1.0/x-1.762e-3,0.986e-5,1.389e-5) ) + 4.65e-2
143./168.*104./105.*7./3.* ( 1.628e-5*TMath::Voigt(1.0/x-1.321e-3,1.473e-5,1.389e-5) +  0.102e-5*TMath::Voigt(1.0/x-1.548e-3,0.986e-5,1.389e-5) +  0.191*0.102e-5*TMath::Voigt(1.0/x-1.762e-3,0.986e-5,1.389e-5) ) + 4.65e-2
(( ((x<393)*27.3574*TMath::Gaus(x,250.228,53.4958)+(x>=393)*(x<498)*exp(10.4945-0.0272251*x)+(x>=498)*exp(6.47233-0.0191205*x))*(x<530)*1.1 + (x>=530)*0.02826 )*1.63/1.63+0.*0.05)*y
( exp(10.6422-0.0303786*x)*0. + (1.34305*TMath::Gaus(x,422.81,27.474)+exp(15.5921-0.0406339*x)+exp(4.4398 -0.0117956*x))*1. )*y
( exp(10.6422-0.0303786*x)*0. + (1.34305*TMath::Gaus(x,422.81,27.474)+exp(15.5921-0.0406339*x)+exp(4.4398 -0.0117956*x))*1. )*y
parameterFiles/irradData_insitu_Robert_2-1.dat
8./27.*TMath::Pi()*TMath::Pi()*TMath::Pi()/x/x/x/x*1e36*pow(1.44355*x*x / (x*x - 20216.),2)*pow(3 + 1.44355*x*x / (x*x - 20216.),2)*1.3806488e-23*295.*5.8e-10*4.010
8./27.*TMath::Pi()*TMath::Pi()*TMath::Pi()/x/x/x/x*1e36*pow(1.18188*x*x / (x*x - 11309.),2)*pow(3 + 1.18188*x*x / (x*x - 11309.),2)*1.3806488e-23*295.*5.2e-10*1.1
8./27.*TMath::Pi()*TMath::Pi()*TMath::Pi()/x/x/x/x*1e36*pow(0.98323*x*x / (x*x - 9541.),2)*pow(3 + 0.98323*x*x / (x*x - 9541.),2)*1.3806488e-23*295.*5.2e-10*1.1
