1.9	0
1.922	17
2.046	58
2.170	141
2.294	307
2.418	557
2.542	831
2.591	911
2.641	968
2.678	990
2.715	999
2.765	962
2.814	891
2.914	665
3.038	333
3.100	187
3.162	76
3.224	19
3.286	0
3.4	0
3.5	0
3.6	0
3.7	0
3.8	0
3.9	0
4.0	0
4.1	0
4.2	0
4.3	0
4.4275	0
