1.900	1.25E+17
1.925	2.77E+16
1.950	6.38E+15
1.975	1.53E+15
2.000	3.78E+14
2.025	9.69E+13
2.050	2.57E+13
2.075	7.03E+12
2.100	1.99E+12
2.125	5.78E+11
2.150	1.73E+11
2.175	5.32E+10
2.200	1.68E+10
2.225	5.45E+9
2.250	1.81E+9
2.275	6.18E+8
2.300	2.16E+8
2.333	5.56E+7
2.367	1.43E+7
2.400	3.97E+6
2.433	1.14E+6
2.467	3.28E+5
2.500	1.01E+5
2.533	3.20E+4
2.567	1.01E+4
2.600	3.39E+3
2.633	1.17E+3
2.667	4.03E+2
2.700	1.47E+2
2.733	5.48E+1
2.767	2.03E+1
2.800	7.96E+0
2.833	3.18E+0
2.867	1.26E+0
2.900	5.27E-1
2.933	2.24E-1
2.967	9.47E-2
3.000	4.18E-2
3.020	2.57E-2
3.040	1.59E-2
3.0729	4.60E-3
3.0934	3.68E-3
3.1120	2.94E-3
3.1368	1.84E-3
3.1616	1.04E-3
3.1864	6.13E-4
3.2112	3.89E-4
3.2360	2.62E-4
3.2608	1.84E-4
3.2856	1.32E-4
3.3166	9.49E-5
3.3476	7.50E-5
3.4096	5.62E-5
3.4716	4.62E-5
3.5335	4.08E-5
3.5807	3.95E-5
3.5955	3.96E-5
3.6575	4.13E-5
3.7195	4.42E-5
3.7815	5.05E-5
3.9055	7.07E-5
4.0295	1.10E-4
4.1535	1.71E-4
4.2775	2.50E-4
4.4014	3.09E-4
4.4275	3.13E-4
