1.900	2.50E+17
1.925	5.54E+16
1.950	1.28E+16
1.975	3.05E+15
2.000	7.56E+14
2.025	1.94E+14
2.050	5.14E+13
2.075	1.41E+13
2.100	3.97E+12
2.125	1.16E+12
2.150	3.46E+11
2.175	1.06E+11
2.200	3.36E+10
2.225	1.09E+10
2.250	3.63E+9
2.275	1.24E+9
2.300	4.31E+8
2.333	1.11E+8
2.367	2.86E+7
2.400	7.95E+6
2.433	2.29E+6
2.467	6.56E+5
2.500	2.02E+5
2.533	6.39E+4
2.567	2.02E+4
2.600	6.79E+3
2.633	2.35E+3
2.667	8.07E+2
2.700	2.94E+2
2.733	1.10E+2
2.767	4.07E+1
2.800	1.59E+1
2.833	6.36E+0
2.867	2.53E+0
2.900	1.05E+0
2.933	4.48E-1
2.967	1.89E-1
3.000	8.36E-2
3.020	5.14E-2
3.040	3.18E-2
3.0729	9.19E-3		
3.0934	7.36E-3		
3.1120	5.88E-3		
3.1368	3.68E-3		
3.1616	2.07E-3		
3.1864	1.23E-3		
3.2112	7.78E-4		
3.2360	5.24E-4		
3.2608	3.68E-4		
3.2856	2.63E-4		
3.3166	1.90E-4		
3.3476	1.50E-4		
3.4096	1.12E-4		
3.4716	9.25E-5		
3.5335	8.16E-5		
3.5807	7.91E-5		
3.5955	7.92E-5		
3.6575	8.26E-5		
3.7195	8.85E-5		
3.7815	1.01E-4		
3.9055	1.41E-4		
4.0295	2.21E-4		
4.1535	3.42E-4		
4.2775	5.00E-4		
4.4014	6.18E-4		
4.4275	6.26E-4		
